100x100
0011000000100111000010011001100100111000001011110010010010000111100000001111110001100000100011110001
1000010110111001101110100110001101011000000001000000010101000111111100010100011011111110010001000010
0101110101000110101001011110000100001101101001000001001101010110110001111111001110111001111100011111
1011011000111100000000111111000000010000111001000001011100010101000000001011110100110110101010011010
0110111001011100010000111011000110110000010010000110001001000110010111011010110011010111111011100010
0001101111101011101100100111101000111101101100100110010101101111111000001000011111001110010011110111
1101000101101101010001111011111000000100110011100111000001001111010111000000110010001010110001011111
1011011111010001101011010111101011001000011010100001101110001101000100101000101001001001110110110001
0010110110011100000101000111011011011100110111011100101010010001011111101101000111111101100010100111
1111001001010111001011000010010001011100100110100011110001100100000110010100010000011110000100000111
0001010101001110100001110100010101100110000110000100100100001010100101010001000101001100010110100111
0010011011111001000001100100111101010001011110010110001110100110010100000001001110001101100000001011
1110110010010100011001001101001110111001000010001011111001101111000101000101001101110001010001001110
0101001100001010011011110110010101001000010011110101001011000000000001111111011001111101011110100001
1110101000111111101001101101110010100101000011000011011011000101001011000111011000011010001101111010
0010110111101110011011011110101001000101111110100111110011000000001110010001101001111101011011010001
1101110000110100001110111101011110110111110110001001010010110000011100010101001001110011001000010010
1001110000110111111010100110100010010000101111111100100010101010111111000011101100011100001111001001
0100001011010001011110010100000101100100111000101001011101111101001101101110100111001111000001001001
0001001101100101011000000010101100100100000010110111010100110001001100010100101001001111001111111111
1010111111011001101000110101010110111011001110101001000011010110000111011011101000100011001010000100
0101010100011100101110101100000101110100110100000111000111000001110000000100001011111111001110111111
0101001100111001101100100010110010000110100001110111001000000010100011001111010000111000000011111100
1110100010111101000010000110011001100000000011001100001110010001110010001001011000010010011011110100
0101100110111011011001110101000001010010010101000110101010101000101101000111101011110111111010101100
0110111001000001111100011110100010001101110111101011000111100011010010011000000001011101110110001001
1110001000010010100011100010111100110000101010011010011100011001010011010100111001100101101010110100
1100010000001110000011111110001111000100110000011111010011110010010000001011100000011001110110110100
0010000001100111011100111010010000010100100000000000101110100010111101100110110010010001010100000000
1000000101101001100010101100011000110100111000000001010000001011011010111101100101001100100011100010
0100101001000101011111111110110111000101110111011110100101010011100010101000010011101111000110000111
1111000101001101011001111000100001100110111001001011101110010010100100000010001010101110101111101111
1101101101100101111001011011110000110010111111111010000010100010011011011101111110000011100011011011
0000100000010010100001010100001011000111001001000101000000101101000110011001111010101001000110101000
0110010011000000001000001111000011110000001010101111000111100011110111110110011100100001111110000110
1010010001011101111110000011010101111100101001010010001011010110110100000110011001000111011110000101
1111100011001010000011000100000011010101111001000110100000101100111101100100101011000000000011111111
0110101010100110001110111111000111011100101111011011001101000001010001001000111011010111111011101000
1101111101101111110000000111101100111001011101001101101110000010111010000111000000100111100110100100
0101101101100010011101010000101110111111001001111100001011010000000011111111101001101100111011001101
0001101111110001011111111101111100010000111001100101100011011010110100100011110100000001011010101100
0011001001101110110101001100100011111101101100000111110111100000111111110011100100010100001101100100
1011011101000011100011001110110100100001110110111010001011001110100011101011001010011000001101011111
1011001010000101100001011010000000100101111010001011000001101010110111111100011001001101011000101011
0011000111110001101111111100111101101001100101111010000101100110110001001110000011100110111100111100
1011110100010010010001011101000110010000001100000000100010100101011011110110100101100101010000010010
0101011101001000111010110011001111001100110001010110000010001000010010100111111011001111010111000111
0110111111100110010010111000010001110010000100100010001100100011001100010010101011100101110000001010
0101011011101100000101111010001001110111010110010010110100010000010100011001000100011000001010100001
1010111000011110111010111111000111100011010010101000010011101110101001010111110010111011001011100100
1110101011100100101010000001110001001110000011110111011001110100000110100001000010110111011011001100
1110101110001011011100111001000010010110101100101100011101100110001000101111100011100100111000010110
0111001011011100101101111001011110100010111011110010000100000111011000111100101010111001001111110000
1010001110000100011111011111001100011100110001010101000000000111001110110011111110010110101000001011
1010100011111111000011110100100001101100110100110111100110100111101010000111001001000101010000001000
0111000011011100101000000010001111010110101000111110101000010100011011100001000111101101100010100010
1111000000010100101010111101111101110101010101011011111101010011101001110111000010001001110000101111
1000010011010000100010101100001101101010110000001111111000100101001111101000100001101101000001100100
0001111111110000011111100010011101011000110010011100011110101101010100100001100100011110010110110101
1101000001010110100110111110110111100110111101000110101100001100011101111011011010011100010000111110
0111101011010101010000000100000011011000010000111100011010111110001101110110001010110101011001111000
1000011100000011110101110010011100001000010100110010001001010010011000110100010001101000111011110000
0011011100011001100111111100011110011111000111001110110011101111101010000101011010000111111011001010
1100001000111100011011011010001111101111111010010101001010010111101111000111010110011001011001100101
0011110010010100101000001001111011101110101111010011110011111010010101110000001101001100001000011001
1111000000100000011100010100011111000101011010100011010110000010111100000111100101000001110001010010
0010011011010000001010110001001011001001010110101100000101001000010100001000110000011011111011000101
0110101100011111110101011000000001101110011100111000001001011011000010111111011100110100001000010111
0110001110100101011100101100111101100100111111110001011111100010100010101110010001011100011000011101
0111011110111111011010000011011000110101110100111101001110010110100110001100110000110011001101001010
0100110010101101100111011011110100110111001010101001110111011001110011011100100111001011110101000110
0111001011001100011010100100110100001011001011111001000111110010111001011010011001101100101101110000
0110010001101101111011100111010000110100110010101100011011111011100001111100011010100001010100110100
1111101111011101001111001000010011101011101011010101101010101110110001101111000001010101000001101100
0010111111111101001010101000111110001000110101110010101110011001011101001010000010111000010101100110
0111101111100001001001010110000010100111110000000100100100100101011011110101111011000101010000111101
0001001111011101010011001100101010100001010101101010011010000100001000111000100100001111000011011010
1011110011100100010011111011010001001101111011100100001010100110101010011001110101001100011000100100
0101101111000010010001101010001001100100101101111111001001110111010100001000111001110101100000010110
1000000000001101000000111111101011100001010001100100011000101010100000100110000001001010110000100010
1001001111100110100111100011100111010100101001001001000010111000011011000011101100000001100001010001
1101001111100110100000111010101110111100001000000100000111111100000111000101100010011100011101001001
1100110000111000011001111101011010110101111111100011010101110110101000000011111110111010001010011010
0110100100110011001000001100011000111110001011010001100100000000110110000111010100111100100001010100
1111100010111100111100010100001111110110101001010100001101000010111011011001010101110100010100011111
0100000001100011010001001110100100010101000000101011101001111100111101000101001111110100111011010001
1111111011010110000010000110101010101011100000111100110011110001001101010101110000000000010010100100
1010101000101111011001111110101000111010000000111011010101111100110111101000100011010100100110001000
1000100111001110101110100111011001000110100110000000111111010000010010011110011101001111101011001011
1111011011000010101111100010001101010000100110000111010111010001010011100011100101110100000010101001
0000111101101100100001010011000110101010010110100101110001101100001100001111110011101100000101110111
1001000111100110100000100000010101111010001001101001000100101011100001110001000011010011001110101111
0100011101101010011010110100000001100010010101001100110010110011101010110111110000101001011001110110
1010110001011101001011100111001111000000110000000001001110111110010111001001100101011110000101011100
1101100111111100100101011101001110010101101010011010011101000000000110010110110111101000111010000000
1101101011000000101110111100101110111100110011010111001100100101000110000001000011111001010100100100
1110110000000011000110110110011110100000010010011001110101011101111001010000111100011100111011111011
0010010000111001100101111011100000111011110110100101001110101100110011000001001101001100101101011110
1111010001100000011111010011101111000101111001111101100011000001011101110000101011110111100000010000
1111100011001100101010000100111011010101100010101110011011101001101011011000100010010101101001001110